Alessandra [Ali] Valcarcel
…
# Search for Amy Winehouse
geniusr::search_artist("Amy Winehouse")

## Warning in strptime(x, fmt, tz = "GMT"): unknown timezone 'zone/tz/2018c.
## 1.0/zoneinfo/America/New_York'

## # A tibble: 1 x 3
##   artist_id artist_name   artist_url                              
##       <int> <chr>         <chr>                                   
## 1      1525 Amy Winehouse https://genius.com/artists/Amy-winehouse

# Use artist_id to obtain song_id
geniusr::get_artist_songs(artist_id = 1525)

## # A tibble: 133 x 7
##    song_id song_name     song_lyrics_url        annotation_count artist_id
##      <int> <chr>         <chr>                             <int>     <int>
##  1  247618 Addicted      https://genius.com/Am…               10      1525
##  2  435850 Alcoholic Lo… https://genius.com/Am…               12      1525
##  3  800473 Amy Amy Amy   https://genius.com/Am…                1      1525
##  4  328608 Amy Amy Amy … https://genius.com/Am…                0      1525
##  5  328740 A Song for Y… https://genius.com/Am…                1      1525
##  6   52836 Back to Black https://genius.com/Am…               14      1525
##  7 3053819 Back To Blac… https://genius.com/Am…                0      1525
##  8 2442037 Back To Blac… https://genius.com/Am…                0      1525
##  9 1955611 Back To Blac… https://genius.com/Am…                1      1525
## 10 3592764 Back To Blac… https://genius.com/Am…                0      1525
## # ... with 123 more rows, and 2 more variables: artist_name <chr>,
## #   artist_url <chr>
…
# Get song lyrics to Rehab using the URL directly
geniusr::scrape_lyrics_url("https://genius.com/Amy-winehouse-rehab-lyrics")

## # A tibble: 33 x 4
##    line                    song_lyrics_url           song_name artist_name
##    <chr>                   <chr>                     <chr>     <chr>      
##  1 They tried to make me … https://genius.com/Amy-w… Rehab     Amy Wineho…
##  2 Yes I've been black bu… https://genius.com/Amy-w… Rehab     Amy Wineho…
##  3 I ain't got the time a… https://genius.com/Amy-w… Rehab     Amy Wineho…
##  4 He's tried to make me … https://genius.com/Amy-w… Rehab     Amy Wineho…
##  5 I'd rather be at home … https://genius.com/Amy-w… Rehab     Amy Wineho…
##  6 I ain't got seventy da… https://genius.com/Amy-w… Rehab     Amy Wineho…
##  7 Cause there's nothing   https://genius.com/Amy-w… Rehab     Amy Wineho…
##  8 There's nothing you ca… https://genius.com/Amy-w… Rehab     Amy Wineho…
##  9 That I can't learn fro… https://genius.com/Amy-w… Rehab     Amy Wineho…
## 10 I didn't get a lot in … https://genius.com/Amy-w… Rehab     Amy Wineho…
## # ... with 23 more rows
…
